Lab3/Data/B/B.CSV

Model,MSO2024
Firmware Version,1.35

Point Format,Y,
Horizontal Units,S,
Horizontal Scale,1e-05,
Sample Interval,1e-09,
Filter Frequency,2e+08,
Record Length,100000,
Gating,49.49900% to 50.500%,49.49900% to 50.500%
Probe Attenuation,1,1
Vertical Units,V,V
Vertical Offset,0,0
Vertical Scale,1,5
Label,,
TIME,CH1,CH2
-2.01000e-07,0.02,0.4
-2.00000e-07,-0.02,0.4
-1.99000e-07,-0.02,0.4
-1.98000e-07,-0.02,0.4
-1.97000e-07,-0.02,0.4
-1.96000e-07,-0.02,0.4
-1.95000e-07,0.02,0.4
-1.94000e-07,-0.02,0.4
-1.93000e-07,0.02,0.4
-1.92000e-07,-0.02,0.4
-1.91000e-07,0.02,0.4
-1.90000e-07,-0.02,0.4
-1.89000e-07,0.02,0.4
-1.88000e-07,-0.02,0.4
-1.87000e-07,-0.02,0.4
-1.86000e-07,-0.02,0.4
-1.85000e-07,-0.02,0.4
-1.84000e-07,-0.02,0.4
-1.83000e-07,0.02,0.4
-1.82000e-07,-0.02,0.4
-1.81000e-07,0.02,0.4
-1.80000e-07,-0.02,0.4
-1.79000e-07,0.02,0.4
-1.78000e-07,-0.02,0.4
-1.77000e-07,0.02,0.4
-1.76000e-07,0.02,0.4
-1.75000e-07,0.02,0.4
-1.74000e-07,-0.02,0.4
-1.73000e-07,-0.02,0.4
-1.72000e-07,-0.02,0.4
-1.71000e-07,-0.02,0.4
-1.70000e-07,-0.02,0.4
-1.69000e-07,-0.02,0.4
-1.68000e-07,-0.02,0.4
-1.67000e-07,0.02,0.4
-1.66000e-07,-0.02,0.4
-1.65000e-07,0.02,0.4
-1.64000e-07,-0.02,0.4
-1.63000e-07,0.02,0.4
-1.62000e-07,-0.02,0.4
-1.61000e-07,0.02,0.4
-1.60000e-07,-0.02,0.4
-1.59000e-07,0.02,0.4
-1.58000e-07,-0.02,0.4
-1.57000e-07,0.02,0.4
-1.56000e-07,-0.02,0.4
-1.55000e-07,-0.02,0.4
-1.54000e-07,-0.02,0.4
-1.53000e-07,-0.02,0.4
-1.52000e-07,-0.02,0.4
-1.51000e-07,-0.02,0.2
-1.50000e-07,-0.02,0.4
-1.49000e-07,0.02,0.4
-1.48000e-07,-0.06,0.4
-1.47000e-07,-0.02,0.4
-1.46000e-07,-0.06,0.4
-1.45000e-07,-0.02,0.4
-1.44000e-07,-0.02,0.4
-1.43000e-07,0.02,0.4
-1.42000e-07,0.02,0.4
-1.41000e-07,0.02,0.4
-1.40000e-07,-0.02,0.4
-1.39000e-07,0.02,0.4
-1.38000e-07,-0.02,0.4
-1.37000e-07,0.02,0.4
-1.36000e-07,-0.02,0.4
-1.35000e-07,0.02,0.4
-1.34000e-07,-0.02,0.4
-1.33000e-07,-0.02,0.4
-1.32000e-07,-0.02,0.4
-1.31000e-07,-0.02,0.2
-1.30000e-07,-0.02,0.4
-1.29000e-07,-0.02,0.4
-1.28000e-07,-0.02,0.4
-1.27000e-07,-0.02,0.4
-1.26000e-07,-0.02,0.4
-1.25000e-07,-0.02,0.4
-1.24000e-07,-0.02,0.4
-1.23000e-07,-0.02,0.4
-1.22000e-07,-0.02,0.2
-1.21000e-07,-0.02,0.4
-1.20000e-07,-0.02,0.4
-1.19000e-07,-0.02,0.4
-1.18000e-07,-0.02,0.4
-1.17000e-07,-0.02,0.4
-1.16000e-07,-0.02,0.4
-1.15000e-07,-0.02,0.4
-1.14000e-07,-0.02,0.4
-1.13000e-07,-0.02,0.4
-1.12000e-07,-0.02,0.4
-1.11000e-07,-0.02,0.4
-1.10000e-07,-0.02,0.4
-1.09000e-07,-0.02,0.4
-1.08000e-07,-0.02,0.4
-1.07000e-07,0.02,0.4
-1.06000e-07,-0.02,0.4
-1.05000e-07,0.02,0.4
-1.04000e-07,-0.02,0.4
-1.03000e-07,-0.02,0.4
-1.02000e-07,-0.02,0.4
-1.01000e-07,-0.02,0.4
-1.00000e-07,-0.02,0.4
-9.90000e-08,-0.02,0.4
-9.80000e-08,-0.02,0.4
-9.70000e-08,-0.02,0.4
-9.60000e-08,-0.02,0.4
-9.50000e-08,0.02,0.4
-9.40000e-08,-0.02,0.4
-9.30000e-08,0.02,0.4
-9.20000e-08,-0.02,0.4
-9.10000e-08,0.02,0.4
-9.00000e-08,-0.02,0.4
-8.90000e-08,0.02,0.4
-8.80000e-08,-0.02,0.4
-8.70000e-08,-0.02,0.4
-8.60000e-08,-0.02,0.4
-8.50000e-08,0.02,0.4
-8.40000e-08,-0.02,0.4
-8.30000e-08,-0.02,0.4
-8.20000e-08,-0.02,0.4
-8.10000e-08,-0.02,0.4
-8.00000e-08,-0.02,0.4
-7.90000e-08,0.02,0.4
-7.80000e-08,-0.02,0.4
-7.70000e-08,0.02,0.4
-7.60000e-08,-0.02,0.4
-7.50000e-08,0.02,0.4
-7.40000e-08,-0.02,0.4
-7.30000e-08,0.02,0.4
-7.20000e-08,-0.02,0.4
-7.10000e-08,0.02,0.4
-7.00000e-08,-0.02,0.4
-6.90000e-08,-0.02,0.4
-6.80000e-08,-0.02,0.4
-6.70000e-08,-0.02,0.4
-6.60000e-08,-0.02,0.4
-6.50000e-08,-0.02,0.4
-6.40000e-08,-0.02,0.4
-6.30000e-08,-0.02,0.4
-6.20000e-08,-0.02,0.4
-6.10000e-08,0.02,0.4
-6.00000e-08,-0.02,0.4
-5.90000e-08,0.02,0.4
-5.80000e-08,-0.02,0.4
-5.70000e-08,-0.02,0.4
-5.60000e-08,-0.02,0.4
-5.50000e-08,0.02,0.4
-5.40000e-08,-0.02,0.4
-5.30000e-08,0.02,0.4
-5.20000e-08,-0.02,0.4
-5.10000e-08,-0.02,0.4
-5.00000e-08,-0.02,0.4
-4.90000e-08,-0.02,0.4
-4.80000e-08,-0.02,0.4
-4.70000e-08,-0.02,0.4
-4.60000e-08,-0.02,0.4
-4.50000e-08,-0.02,0.4
-4.40000e-08,-0.02,0.4
-4.30000e-08,-0.02,0.4
-4.20000e-08,-0.02,0.4
-4.10000e-08,-0.02,0.4
-4.00000e-08,-0.02,0.4
-3.90000e-08,-0.02,0.4
-3.80000e-08,-0.02,0.4
-3.70000e-08,0.02,0.4
-3.60000e-08,-0.02,0.4
-3.50000e-08,0.02,0.2
-3.40000e-08,-0.02,0.4
-3.30000e-08,0.02,0.4
-3.20000e-08,-0.02,0.4
-3.10000e-08,0.02,0.4
-3.00000e-08,0.02,0.4
-2.90000e-08,-0.02,0.4
-2.80000e-08,0.02,0.4
-2.70000e-08,0.02,0.4
-2.60000e-08,-0.02,0.4
-2.50000e-08,0.02,0.4
-2.40000e-08,-0.02,0.4
-2.30000e-08,0.02,0.2
-2.20000e-08,-0.02,0.4
-2.10000e-08,0.02,0.2
-2.00000e-08,-0.02,0.4
-1.90000e-08,0.02,0.2
-1.80000e-08,-0.02,0.4
-1.70000e-08,0.02,0.4
-1.60000e-08,-0.02,0.4
-1.50000e-08,0.02,0.4
-1.40000e-08,-0.02,0.4
-1.30000e-08,0.02,0.4
-1.20000e-08,-0.02,0.4
-1.10000e-08,0.02,0.4
-1.00000e-08,-0.02,0.4
-9.00000e-09,0.02,0.4
-8.00000e-09,0.02,0.4
-7.00000e-09,0.02,0.4
-6.00000e-09,-0.02,0.4
-5.00000e-09,0.02,0.4
-4.00000e-09,0.02,0.4
-3.00000e-09,0.02,0.4
-2.00000e-09,0.02,0.4
-1.00000e-09,0.1,0.4
-1.43698e-20,0.3,0.4
1.00000e-09,0.74,0.4
2.00000e-09,1.34,0.4
3.00000e-09,1.94,0.2
4.00000e-09,2.42,0.4
5.00000e-09,2.7,0.2
6.00000e-09,2.78,0.4
7.00000e-09,2.82,0.4
8.00000e-09,2.78,0.4
9.00000e-09,2.82,0.4
1.00000e-08,2.78,0.4
1.10000e-08,2.82,0.2
1.20000e-08,2.62,0.4
1.30000e-08,2.18,0.4
1.40000e-08,1.54,0.4
1.50000e-08,0.94,0.4
1.60000e-08,0.42,0.4
1.70000e-08,0.14,0.4
1.80000e-08,0.06,0.4
1.90000e-08,0.1,0.4
2.00000e-08,0.1,0.4
2.10000e-08,0.1,0.4
2.20000e-08,0.06,0.4
2.30000e-08,0.06,0.4
2.40000e-08,0.02,0.4
2.50000e-08,0.02,0.4
2.60000e-08,0.06,0.4
2.70000e-08,0.1,0.4
2.80000e-08,0.1,0.4
2.90000e-08,0.06,0.2
3.00000e-08,0.02,0.4
3.10000e-08,0.02,0.4
3.20000e-08,0.02,0.4
3.30000e-08,0.02,0.6
3.40000e-08,-0.02,0.8
3.50000e-08,0.02,1.2
3.60000e-08,0.02,1.6
3.70000e-08,0.02,2
3.80000e-08,0.02,2.4
3.90000e-08,0.02,2.6
4.00000e-08,0.02,2.6
4.10000e-08,0.02,2.6
4.20000e-08,0.02,2.6
4.30000e-08,0.02,2.6
4.40000e-08,0.02,2.6
4.50000e-08,0.02,2.6
4.60000e-08,0.02,2.4
4.70000e-08,0.02,2
4.80000e-08,0.02,1.4
4.90000e-08,0.02,1
5.00000e-08,0.02,0.6
5.10000e-08,0.02,0.6
5.20000e-08,-0.02,0.6
5.30000e-08,0.02,0.6
5.40000e-08,-0.02,0.6
5.50000e-08,0.02,0.6
5.60000e-08,-0.02,0.6
5.70000e-08,0.02,0.4
5.80000e-08,0.02,0.4
5.90000e-08,0.02,0.4
6.00000e-08,0.02,0.6
6.10000e-08,0.02,0.4
6.20000e-08,-0.02,0.4
6.30000e-08,-0.02,0.4
6.40000e-08,-0.02,0.4
6.50000e-08,-0.02,0.4
6.60000e-08,-0.06,0.4
6.70000e-08,-0.06,0.4
6.80000e-08,-0.18,0.4
6.90000e-08,-0.22,0.4
7.00000e-08,-0.26,0.4
7.10000e-08,-0.26,0.4
7.20000e-08,-0.26,0.4
7.30000e-08,-0.22,0.4
7.40000e-08,-0.22,0.4
7.50000e-08,-0.22,0.4
7.60000e-08,-0.26,0.4
7.70000e-08,-0.18,0.4
7.80000e-08,-0.18,0.4
7.90000e-08,-0.06,0.4
8.00000e-08,-0.06,0.4
8.10000e-08,0.06,0.4
8.20000e-08,0.02,0.4
8.30000e-08,0.06,0.4
8.40000e-08,0.02,0.4
8.50000e-08,0.02,0.4
8.60000e-08,-0.02,0.4
8.70000e-08,0.02,0.4
8.80000e-08,-0.02,0.4
8.90000e-08,0.02,0.4
9.00000e-08,-0.02,0.4
9.10000e-08,-0.02,0.4
9.20000e-08,-0.02,0.4
9.30000e-08,-0.02,0.4
9.40000e-08,-0.02,0.4
9.50000e-08,0.02,0.4
9.60000e-08,-0.02,0.4
9.70000e-08,-0.02,0.4
9.80000e-08,-0.06,0.4
9.90000e-08,0.02,0.4
1.00000e-07,-0.02,0.4
1.01000e-07,0.02,0.4
1.02000e-07,-0.02,0.4
1.03000e-07,0.02,0.4
1.04000e-07,-0.02,0.4
1.05000e-07,-0.02,0.4
1.06000e-07,-0.02,0.4
1.07000e-07,0.02,0.4
1.08000e-07,-0.02,0.4
1.09000e-07,0.02,0.4
1.10000e-07,-0.02,0.4
1.11000e-07,0.02,0.4
1.12000e-07,-0.02,0.4
1.13000e-07,0.02,0.4
1.14000e-07,-0.02,0.4
1.15000e-07,0.02,0.4
1.16000e-07,-0.02,0.4
1.17000e-07,0.02,0.4
1.18000e-07,-0.02,0.4
1.19000e-07,0.02,0.4
1.20000e-07,-0.02,0.4
1.21000e-07,0.02,0.4
1.22000e-07,-0.02,0.4
1.23000e-07,0.02,0.4
1.24000e-07,0.02,0.4
1.25000e-07,0.02,0.4
1.26000e-07,-0.02,0.4
1.27000e-07,0.02,0.4
1.28000e-07,-0.02,0.4
1.29000e-07,0.02,0.4
1.30000e-07,-0.02,0.4
1.31000e-07,0.02,0.4
1.32000e-07,-0.02,0.4
1.33000e-07,0.02,0.4
1.34000e-07,-0.02,0.4
1.35000e-07,0.02,0.4
1.36000e-07,0.02,0.4
1.37000e-07,0.02,0.4
1.38000e-07,0.02,0.4
1.39000e-07,-0.02,0.4
1.40000e-07,-0.02,0.4
1.41000e-07,-0.02,0.4
1.42000e-07,-0.02,0.4
1.43000e-07,-0.02,0.4
1.44000e-07,-0.02,0.4
1.45000e-07,-0.02,0.4
1.46000e-07,-0.02,0.4
1.47000e-07,-0.02,0.4
1.48000e-07,-0.02,0.4
1.49000e-07,0.02,0.2
1.50000e-07,-0.02,0.4
1.51000e-07,0.02,0.2
1.52000e-07,-0.02,0.4
1.53000e-07,0.02,0.2
1.54000e-07,-0.02,0.2
1.55000e-07,-0.02,0.4
1.56000e-07,-0.02,0.4
1.57000e-07,0.02,0.4
1.58000e-07,-0.02,0.4
1.59000e-07,0.02,0.4
1.60000e-07,-0.02,0.4
1.61000e-07,-0.02,0.4
1.62000e-07,-0.02,0.4
1.63000e-07,0.02,0.4
1.64000e-07,-0.02,0.4
1.65000e-07,0.02,0.4
1.66000e-07,-0.02,0.4
1.67000e-07,0.02,0.4
1.68000e-07,-0.02,0.4
1.69000e-07,0.02,0.4
1.70000e-07,-0.02,0.4
1.71000e-07,0.02,0.4
1.72000e-07,-0.02,0.4
1.73000e-07,0.02,0.4
1.74000e-07,-0.02,0.4
1.75000e-07,-0.02,0.4
1.76000e-07,-0.02,0.4
1.77000e-07,-0.02,0.4
1.78000e-07,-0.02,0.4
1.79000e-07,-0.02,0.4
1.80000e-07,-0.02,0.4
1.81000e-07,0.02,0.4
1.82000e-07,-0.02,0.4
1.83000e-07,0.02,0.4
1.84000e-07,-0.02,0.4
1.85000e-07,0.02,0.4
1.86000e-07,-0.02,0.4
1.87000e-07,0.02,0.4
1.88000e-07,-0.02,0.4
1.89000e-07,-0.02,0.4
1.90000e-07,-0.02,0.4
1.91000e-07,0.02,0.4
1.92000e-07,0.02,0.4
1.93000e-07,0.02,0.4
1.94000e-07,-0.02,0.4
1.95000e-07,-0.02,0.4
1.96000e-07,-0.02,0.4
1.97000e-07,0.02,0.2
1.98000e-07,-0.02,0.4
1.99000e-07,-0.02,0.4
2.00000e-07,-0.02,0.4
2.01000e-07,0.02,0.4
2.02000e-07,0.02,0.4
2.03000e-07,0.02,0.4
2.04000e-07,-0.02,0.4
2.05000e-07,0.02,0.4
2.06000e-07,-0.02,0.4
2.07000e-07,0.02,0.4
2.08000e-07,-0.02,0.4
2.09000e-07,0.02,0.4
2.10000e-07,-0.02,0.4
2.11000e-07,0.02,0.4
2.12000e-07,0.02,0.4
2.13000e-07,0.02,0.4
2.14000e-07,0.02,0.4
2.15000e-07,0.02,0.2
2.16000e-07,-0.02,0.4
2.17000e-07,0.02,0.4
2.18000e-07,-0.02,0.4
2.19000e-07,-0.02,0.4
2.20000e-07,-0.02,0.4
2.21000e-07,-0.02,0.4
2.22000e-07,-0.02,0.4
2.23000e-07,0.02,0.4
2.24000e-07,-0.02,0.4
2.25000e-07,0.02,0.4
2.26000e-07,-0.02,0.4
2.27000e-07,0.02,0.4
2.28000e-07,0.02,0.4
2.29000e-07,0.02,0.4
2.30000e-07,0.02,0.4
2.31000e-07,0.02,0.4
2.32000e-07,0.02,0.4
2.33000e-07,0.02,0.2
2.34000e-07,-0.02,0.4
2.35000e-07,0.02,0.4
2.36000e-07,-0.02,0.4
2.37000e-07,0.02,0.4
2.38000e-07,-0.02,0.4
2.39000e-07,-0.02,0.4
2.40000e-07,-0.02,0.4
2.41000e-07,0.02,0.4
2.42000e-07,-0.02,0.4
2.43000e-07,-0.02,0.4
2.44000e-07,-0.02,0.4
2.45000e-07,-0.02,0.4
2.46000e-07,-0.02,0.4
2.47000e-07,-0.02,0.4
2.48000e-07,-0.02,0.4
2.49000e-07,0.02,0.4
2.50000e-07,-0.02,0.4
2.51000e-07,0.02,0.4
2.52000e-07,-0.02,0.4
2.53000e-07,-0.02,0.4
2.54000e-07,-0.02,0.4
2.55000e-07,-0.02,0.4
2.56000e-07,-0.02,0.4
2.57000e-07,-0.02,0.4
2.58000e-07,-0.02,0.4
2.59000e-07,0.02,0.4
2.60000e-07,-0.02,0.4
2.61000e-07,0.02,0.4
2.62000e-07,-0.02,0.4
2.63000e-07,0.02,0.4
2.64000e-07,-0.02,0.4
2.65000e-07,-0.02,0.4
2.66000e-07,-0.02,0.4
2.67000e-07,0.02,0.4
2.68000e-07,-0.02,0.4
2.69000e-07,-0.02,0.4
2.70000e-07,-0.02,0.4
2.71000e-07,0.02,0.4
2.72000e-07,-0.02,0.4
2.73000e-07,0.02,0.4
2.74000e-07,-0.02,0.4
2.75000e-07,0.02,0.4
2.76000e-07,-0.02,0.4
2.77000e-07,0.02,0.4
2.78000e-07,-0.02,0.4
2.79000e-07,0.02,0.4
2.80000e-07,-0.02,0.4
2.81000e-07,0.02,0.4
2.82000e-07,-0.02,0.4
2.83000e-07,0.02,0.4
2.84000e-07,-0.02,0.6
2.85000e-07,0.02,0.4
2.86000e-07,0.02,0.4
2.87000e-07,0.02,0.4
2.88000e-07,0.02,0.4
2.89000e-07,0.02,0.4
2.90000e-07,0.02,0.4
2.91000e-07,0.02,0.4
2.92000e-07,0.02,0.4
2.93000e-07,0.02,0.4
2.94000e-07,-0.02,0.4
2.95000e-07,0.02,0.4
2.96000e-07,0.02,0.4
2.97000e-07,0.02,0.4
2.98000e-07,0.02,0.4
2.99000e-07,0.02,0.4
3.00000e-07,0.02,0.4
3.01000e-07,0.02,0.4
3.02000e-07,0.02,0.4
3.03000e-07,0.02,0.4
3.04000e-07,-0.02,0.4
3.05000e-07,0.02,0.4
3.06000e-07,0.02,0.4
3.07000e-07,0.02,0.4
3.08000e-07,-0.02,0.4
3.09000e-07,0.02,0.4
3.10000e-07,-0.02,0.4
3.11000e-07,-0.02,0.4
3.12000e-07,-0.02,0.4
3.13000e-07,0.02,0.4
3.14000e-07,-0.02,0.4
3.15000e-07,0.02,0.4
3.16000e-07,-0.02,0.4
3.17000e-07,-0.02,0.4
3.18000e-07,-0.02,0.4
3.19000e-07,-0.02,0.4
3.20000e-07,-0.02,0.4
3.21000e-07,-0.02,0.4
3.22000e-07,-0.02,0.4
3.23000e-07,0.02,0.4
3.24000e-07,0.02,0.4
3.25000e-07,0.02,0.4
3.26000e-07,0.02,0.4
3.27000e-07,0.02,0.4
3.28000e-07,-0.02,0.4
3.29000e-07,0.02,0.4
3.30000e-07,-0.02,0.4
3.31000e-07,0.02,0.4
3.32000e-07,-0.02,0.4
3.33000e-07,0.02,0.4
3.34000e-07,0.02,0.4
3.35000e-07,0.02,0.4
3.36000e-07,-0.02,0.4
3.37000e-07,0.02,0.4
3.38000e-07,-0.02,0.4
3.39000e-07,-0.02,0.4
3.40000e-07,-0.02,0.4
3.41000e-07,-0.02,0.4
3.42000e-07,-0.02,0.4
3.43000e-07,-0.02,0.4
3.44000e-07,-0.02,0.4
3.45000e-07,0.02,0.4
3.46000e-07,-0.02,0.4
3.47000e-07,0.02,0.4
3.48000e-07,-0.02,0.4
3.49000e-07,-0.02,0.4
3.50000e-07,-0.02,0.4
3.51000e-07,-0.02,0.4
3.52000e-07,-0.02,0.4
3.53000e-07,0.02,0.4
3.54000e-07,-0.02,0.4
3.55000e-07,0.02,0.4
3.56000e-07,-0.02,0.4
3.57000e-07,0.02,0.4
3.58000e-07,-0.02,0.4
3.59000e-07,0.02,0.4
3.60000e-07,0.02,0.4
3.61000e-07,0.02,0.4
3.62000e-07,-0.02,0.4
3.63000e-07,0.02,0.4
3.64000e-07,-0.02,0.4
3.65000e-07,0.02,0.4
3.66000e-07,0.02,0.4
3.67000e-07,0.02,0.4
3.68000e-07,0.02,0.4
3.69000e-07,0.02,0.4
3.70000e-07,-0.02,0.4
3.71000e-07,0.02,0.4
3.72000e-07,0.02,0.4
3.73000e-07,0.02,0.4
3.74000e-07,0.02,0.4
3.75000e-07,0.02,0.2
3.76000e-07,-0.02,0.4
3.77000e-07,0.02,0.4
3.78000e-07,0.02,0.4
3.79000e-07,0.02,0.4
3.80000e-07,-0.02,0.4
3.81000e-07,0.02,0.4
3.82000e-07,-0.02,0.4
3.83000e-07,0.02,0.4
3.84000e-07,-0.02,0.4
3.85000e-07,0.02,0.4
3.86000e-07,-0.02,0.4
3.87000e-07,-0.02,0.6
3.88000e-07,-0.02,0.6
3.89000e-07,-0.02,0.6
3.90000e-07,-0.02,0.8
3.91000e-07,-0.02,0.8
3.92000e-07,-0.02,1
3.93000e-07,0.02,1.2
3.94000e-07,-0.02,1.2
3.95000e-07,0.02,1.4
3.96000e-07,-0.02,1.4
3.97000e-07,-0.02,1.4
3.98000e-07,-0.02,1.4
3.99000e-07,0.02,1.4
4.00000e-07,0.02,1.4
4.01000e-07,0.02,1.4
4.02000e-07,0.02,1.4
4.03000e-07,0.02,1.4
4.04000e-07,0.02,1.2
4.05000e-07,0.02,1
4.06000e-07,-0.02,0.8
4.07000e-07,-0.02,1
4.08000e-07,-0.02,0.8
4.09000e-07,-0.02,1
4.10000e-07,-0.02,1
4.11000e-07,0.02,1
4.12000e-07,-0.02,0.8
4.13000e-07,0.02,0.8
4.14000e-07,0.02,0.8
4.15000e-07,0.02,0.8
4.16000e-07,-0.02,0.8
4.17000e-07,0.02,0.8
4.18000e-07,-0.02,0.6
4.19000e-07,0.02,0.6
4.20000e-07,-0.02,0.8
4.21000e-07,0.06,0.6
4.22000e-07,0.1,0.8
4.23000e-07,0.18,0.6
4.24000e-07,0.26,0.6
4.25000e-07,0.34,0.6
4.26000e-07,0.42,0.6
4.27000e-07,0.54,0.6
4.28000e-07,0.58,0.6
4.29000e-07,0.7,0.6
4.30000e-07,0.74,0.6
4.31000e-07,0.82,0.6
4.32000e-07,0.82,0.6
4.33000e-07,0.82,0.6
4.34000e-07,0.82,0.6
4.35000e-07,0.78,0.6
4.36000e-07,0.74,0.6
4.37000e-07,0.7,0.6
4.38000e-07,0.62,0.6
4.39000e-07,0.58,0.6
4.40000e-07,0.5,0.6
4.41000e-07,0.46,0.6
4.42000e-07,0.42,0.6
4.43000e-07,0.42,0.6
4.44000e-07,0.38,0.6
4.45000e-07,0.38,0.6
4.46000e-07,0.34,0.6
4.47000e-07,0.34,0.6
4.48000e-07,0.3,0.6
4.49000e-07,0.3,0.4
4.50000e-07,0.3,0.6
4.51000e-07,0.3,0.6
4.52000e-07,0.26,0.6
4.53000e-07,0.26,0.4
4.54000e-07,0.22,0.4
4.55000e-07,0.22,0.4
4.56000e-07,0.22,0.4
4.57000e-07,0.22,0.4
4.58000e-07,0.22,0.4
4.59000e-07,0.22,0.4
4.60000e-07,0.18,0.4
4.61000e-07,0.18,0.4
4.62000e-07,0.18,0.4
4.63000e-07,0.14,0.4
4.64000e-07,0.14,0.4
4.65000e-07,0.14,0.4
4.66000e-07,0.14,0.4
4.67000e-07,0.14,0.4
4.68000e-07,0.14,0.4
4.69000e-07,0.14,0.4
4.70000e-07,0.1,0.4
4.71000e-07,0.1,0.4
4.72000e-07,0.1,0.4
4.73000e-07,0.1,0.4
4.74000e-07,0.1,0.4
4.75000e-07,0.1,0.4
4.76000e-07,0.1,0.4
4.77000e-07,0.1,0.4
4.78000e-07,0.1,0.4
4.79000e-07,0.1,0.4
4.80000e-07,0.06,0.4
4.81000e-07,0.1,0.4
4.82000e-07,0.06,0.4
4.83000e-07,0.1,0.4
4.84000e-07,0.06,0.4
4.85000e-07,0.1,0.4
4.86000e-07,0.06,0.4
4.87000e-07,0.1,0.4
4.88000e-07,0.06,0.4
4.89000e-07,0.1,0.4
4.90000e-07,0.06,0.4
4.91000e-07,0.1,0.4
4.92000e-07,0.06,0.4
4.93000e-07,0.06,0.4
4.94000e-07,0.06,0.4
4.95000e-07,0.1,0.4
4.96000e-07,0.1,0.4
4.97000e-07,0.1,0.4
4.98000e-07,0.1,0.4
4.99000e-07,0.1,0.4
5.00000e-07,0.06,0.4
5.01000e-07,0.1,0.4
5.02000e-07,0.06,0.4
5.03000e-07,0.1,0.4
5.04000e-07,0.06,0.4
5.05000e-07,0.1,0.4
5.06000e-07,0.06,0.4
5.07000e-07,0.1,0.4
5.08000e-07,0.06,0.4
5.09000e-07,0.1,0.4
5.10000e-07,0.06,0.4
5.11000e-07,0.06,0.4
5.12000e-07,0.02,0.4
5.13000e-07,0.06,0.4
5.14000e-07,0.02,0.4
5.15000e-07,0.06,0.4
5.16000e-07,0.02,0.4
5.17000e-07,0.02,0.6
5.18000e-07,0.02,0.4
5.19000e-07,0.06,0.4
5.20000e-07,0.02,0.4
5.21000e-07,0.06,0.4
5.22000e-07,0.06,0.4
5.23000e-07,0.06,0.4
5.24000e-07,0.02,0.4
5.25000e-07,0.02,0.4
5.26000e-07,0.02,0.4
5.27000e-07,0.02,0.4
5.28000e-07,0.02,0.4
5.29000e-07,0.06,0.6
5.30000e-07,0.02,0.4
5.31000e-07,0.02,0.4
5.32000e-07,0.02,0.4
5.33000e-07,0.02,0.4
5.34000e-07,0.02,0.4
5.35000e-07,0.06,0.4
5.36000e-07,0.02,0.4
5.37000e-07,0.06,0.4
5.38000e-07,0.02,0.4
5.39000e-07,0.06,0.4
5.40000e-07,0.02,0.4
5.41000e-07,0.02,0.4
5.42000e-07,0.02,0.4
5.43000e-07,0.02,0.4
5.44000e-07,0.02,0.4
5.45000e-07,0.02,0.4
5.46000e-07,0.02,0.4
5.47000e-07,0.02,0.4
5.48000e-07,0.02,0.4
5.49000e-07,0.02,0.4
5.50000e-07,0.02,0.4
5.51000e-07,0.06,0.4
5.52000e-07,0.02,0.4
5.53000e-07,0.02,0.4
5.54000e-07,0.02,0.4
5.55000e-07,0.02,0.4
5.56000e-07,0.02,0.4
5.57000e-07,0.02,0.4
5.58000e-07,0.02,0.4
5.59000e-07,0.02,0.4
5.60000e-07,0.02,0.4
5.61000e-07,0.06,0.4
5.62000e-07,0.02,0.4
5.63000e-07,0.02,0.4
5.64000e-07,0.02,0.4
5.65000e-07,0.02,0.4
5.66000e-07,0.02,0.4
5.67000e-07,0.02,0.2
5.68000e-07,0.02,0.4
5.69000e-07,0.02,0.4
5.70000e-07,0.02,0.4
5.71000e-07,0.02,0.4
5.72000e-07,0.02,0.4
5.73000e-07,0.02,0.4
5.74000e-07,0.02,0.4
5.75000e-07,0.02,0.4
5.76000e-07,-0.02,0.4
5.77000e-07,0.02,0.4
5.78000e-07,-0.02,0.4
5.79000e-07,0.02,0.4
5.80000e-07,0.02,0.4
5.81000e-07,0.02,0.4
5.82000e-07,0.02,0.4
5.83000e-07,0.02,0.4
5.84000e-07,0.02,0.4
5.85000e-07,0.02,0.4
5.86000e-07,0.02,0.4
5.87000e-07,0.02,0.4
5.88000e-07,-0.02,0.4
5.89000e-07,0.02,0.2
5.90000e-07,-0.02,0.4
5.91000e-07,0.02,0.2
5.92000e-07,-0.02,0.4
5.93000e-07,0.02,0.4
5.94000e-07,-0.02,0.4
5.95000e-07,0.02,0.4
5.96000e-07,0.02,0.4
5.97000e-07,0.02,0.4
5.98000e-07,0.02,0.4
5.99000e-07,0.02,0.4
6.00000e-07,0.02,0.4
6.01000e-07,0.02,0.4
6.02000e-07,0.02,0.4
6.03000e-07,0.02,0.4
6.04000e-07,-0.02,0.4
6.05000e-07,0.02,0.4
6.06000e-07,-0.02,0.4
6.07000e-07,0.02,0.4
6.08000e-07,0.02,0.4
6.09000e-07,0.02,0.4
6.10000e-07,-0.02,0.4
6.11000e-07,0.02,0.4
6.12000e-07,0.02,0.4
6.13000e-07,0.02,0.4
6.14000e-07,-0.02,0.4
6.15000e-07,0.02,0.4
6.16000e-07,0.02,0.4
6.17000e-07,0.02,0.4
6.18000e-07,0.02,0.4
6.19000e-07,0.02,0.2
6.20000e-07,-0.02,0.4
6.21000e-07,0.02,0.4
6.22000e-07,0.02,0.4
6.23000e-07,0.02,0.4
6.24000e-07,0.02,0.4
6.25000e-07,0.02,0.4
6.26000e-07,0.02,0.4
6.27000e-07,0.02,0.4
6.28000e-07,0.02,0.4
6.29000e-07,0.02,0.4
6.30000e-07,0.02,0.4
6.31000e-07,0.02,0.4
6.32000e-07,-0.02,0.4
6.33000e-07,0.02,0.4
6.34000e-07,-0.02,0.4
6.35000e-07,0.02,0.4
6.36000e-07,0.02,0.4
6.37000e-07,0.02,0.4
6.38000e-07,-0.02,0.4
6.39000e-07,0.02,0.2
6.40000e-07,-0.02,0.4
6.41000e-07,0.02,0.4
6.42000e-07,0.02,0.4
6.43000e-07,0.02,0.4
6.44000e-07,-0.02,0.4
6.45000e-07,0.02,0.4
6.46000e-07,-0.02,0.4
6.47000e-07,0.02,0.4
6.48000e-07,-0.02,0.4
6.49000e-07,0.02,0.4
6.50000e-07,-0.02,0.4
6.51000e-07,0.02,0.4
6.52000e-07,0.02,0.4
6.53000e-07,0.02,0.4
6.54000e-07,-0.02,0.4
6.55000e-07,0.02,0.4
6.56000e-07,-0.02,0.4
6.57000e-07,0.02,0.4
6.58000e-07,0.02,0.4
6.59000e-07,0.02,0.4
6.60000e-07,0.02,0.4
6.61000e-07,0.02,0.4
6.62000e-07,0.02,0.4
6.63000e-07,0.02,0.4
6.64000e-07,0.02,0.4
6.65000e-07,0.02,0.4
6.66000e-07,0.02,0.4
6.67000e-07,0.02,0.4
6.68000e-07,-0.02,0.4
6.69000e-07,0.02,0.4
6.70000e-07,-0.02,0.4
6.71000e-07,0.02,0.4
6.72000e-07,-0.02,0.4
6.73000e-07,0.02,0.4
6.74000e-07,-0.02,0.4
6.75000e-07,0.02,0.4
6.76000e-07,-0.02,0.4
6.77000e-07,0.02,0.4
6.78000e-07,-0.02,0.4
6.79000e-07,0.02,0.4
6.80000e-07,0.02,0.4
6.81000e-07,0.02,0.4
6.82000e-07,-0.02,0.4
6.83000e-07,0.02,0.4
6.84000e-07,0.02,0.4
6.85000e-07,0.06,0.4
6.86000e-07,0.02,0.4
6.87000e-07,0.02,0.4
6.88000e-07,-0.02,0.4
6.89000e-07,0.02,0.4
6.90000e-07,-0.02,0.4
6.91000e-07,0.02,0.4
6.92000e-07,-0.02,0.4
6.93000e-07,-0.02,0.4
6.94000e-07,-0.02,0.4
6.95000e-07,-0.02,0.4
6.96000e-07,-0.02,0.4
6.97000e-07,0.02,0.2
6.98000e-07,-0.02,0.4
6.99000e-07,0.02,0.4
7.00000e-07,-0.02,0.4
7.01000e-07,0.02,0.4
7.02000e-07,0.02,0.4
7.03000e-07,0.02,0.4
7.04000e-07,-0.02,0.4
7.05000e-07,-0.02,0.4
7.06000e-07,-0.02,0.4
7.07000e-07,0.02,0.4
7.08000e-07,-0.02,0.4
7.09000e-07,0.02,0.4
7.10000e-07,-0.02,0.4
